{
  "model": {
    "name": "CONSOLIDATION",
    "description": "Consolidated Model (Sample)",
    "classes": [
      {
        "name": "Entity",
        "description": "Entity",
        "attributes": [
          {
            "name": "C0.NAME",
            "description": "Long Description",
	    "type": "String",
            "writable": true,
	    "classification": "Description"
          },	  
          {
            "name": "C0_IS124",
            "description": "Issuer legal name",
            "type": "String",
            "writable": true,
            "classification" : "Description"
          },
          {
            "name": "C0_SRC25",
            "description": "Issuer entity type",
            "type": "String",
            "writable": true,
            "classification" : "ObjectInformation"
          },
          {
            "name": "C0+IS015",
            "description": "Issuer instrument",
            "type": "ObjectReference",
            "writable": true,
            "classification" : "Identifiers"
          },
          {
            "name": "C0_IS131",
            "description": "Issuer website",
            "type": "String",
            "writable": true,
            "classification" : "Location"
          },
          {
            "name": "C0_IS004",
            "description": "Issuer country",
            "type": "TRADE_COUNTRY",
            "writable": true,
            "classification" : "Location"
          },
          {
            "name": "C0+IS100",
            "description": "Child entity ADO",
            "type": "ISSUER_ADO",
            "writable": true,
            "classification" : "Hierarchy"
          },
          {
            "name": "C0_IS154",
            "description": "Issuer industry group",
            "type": "GICS INDUSTRY GROUP",
            "writable": true,
            "classification" : "Description"
          },
          {
            "name": "C0_IS153",
            "description": "Issuer industry sector",
            "type": "GICS_SECTOR",
            "writable": true,
            "classification" : "Description"
          },
          {
            "name": "C0_IS156",
            "description": "Issuer industry subgroup",
            "type": "GICS_SUB_INDUSTRY",
            "writable": true,
            "classification" : "Description"
          },
          {
            "name": "C0_IS079",
            "description": "Issuer fitch ratings",
            "type": "FITCH_LT_LC_ISSUER_RATING",
            "writable": true,
            "classification" : "Ratings"
          },
          {
            "name": "C0_IS060",
            "description": "Issuer Moodys ratings",
            "type": "MOODY'S_LT_LC_ISSUER_RATING",
            "writable": true,
            "classification" : "Ratings"
          },
          {
            "name": "C0_IS023",
            "description": "Issuer SP ratings",
            "type": "S&P_LT_LC_ISSUER_RATING",
            "writable": true,
            "classification" : "Ratings"
          },
          {
            "name": "C0_EOD.GB.NYSE.OPEN",
            "description": "Open Price GB.NYSE",
            "type": "TIMESERIES_COMPOUND_PRICE",
            "writable": true,
            "classification" : "Pricing"
          },
          {
            "name": "C0_EOD.GB.NYSE.CLOSE",
            "description": "Close Price",
            "type": "TIMESERIES_COMPOUND_PRICE",
            "writable": true,
            "classification" : "Pricing"
          },
          {
            "name": "C0_EOD.GB.NYSE.HIGH",
            "description": "High Price",
            "type": "TIMESERIES_COMPOUND_PRICE",
            "writable": true,
            "classification" : "Pricing"
          },
          {
            "name": "C0_EOD.GB.NYSE.LOW",
            "description": "Low Price",
            "type": "TIMESERIES_COMPOUND_PRICE",
            "writable": true,
            "classification" : "Pricing"
          },
          {
            "name": "C0_EOD.GB.NYSE.VOLUME",
            "description": "Volume",
            "type": "TIMESERIES_COMPOUND_INTEGER",
            "writable": true,
            "classification" : "Pricing"
          },
          {
            "name": "C0_EOD.GB.JPX.OPEN",
            "description": "Open Price",
            "type": "TIMESERIES_COMPOUND_PRICE",
            "writable": true,
            "classification" : "Pricing"
          },
          {
            "name": "C0_EOD.GB.JPX.CLOSE",
            "description": "Close Price",
            "type": "TIMESERIES_COMPOUND_PRICE",
            "writable": true,
            "classification" : "Pricing"
          },
          {
            "name": "C0_EOD.GB.JPX.HIGH",
            "description": "High Price",
            "type": "TIMESERIES_COMPOUND_PRICE",
            "writable": true,
            "classification" : "Pricing"
          },
          {
            "name": "C0_EOD.GB.JPX.LOW",
            "description": "Low Price",
            "type": "TIMESERIES_COMPOUND_PRICE",
            "writable": true,
            "classification" : "Pricing"
          },
          {
            "name": "C0_EOD.GB.JPX.VOLUME",
            "description": "Volume",
            "type": "TIMESERIES_COMPOUND_INTEGER",
            "writable": true,
            "classification" : "Pricing"
          },
          {
            "name": "C0_EOD.NL.NYSE.OPEN",
            "description": "Open Price",
            "type": "TIMESERIES_COMPOUND_PRICE",
            "writable": true,
            "classification" : "Pricing"
          },
          {
            "name": "C0_EOD.NL.NYSE.CLOSE",
            "description": "Close Price",
            "type": "TIMESERIES_COMPOUND_PRICE",
            "writable": true,
            "classification" : "Pricing"
          },
          {
            "name": "C0_EOD.NL.NYSE.HIGH",
            "description": "High Price",
            "type": "TIMESERIES_COMPOUND_PRICE",
            "writable": true,
            "classification" : "Pricing"
          },
          {
            "name": "C0_EOD.NL.NYSE.LOW",
            "description": "Low Price",
            "type": "TIMESERIES_COMPOUND_PRICE",
            "writable": true,
            "classification" : "Pricing"
          },
          {
            "name": "C0_EOD.NL.NYSE.VOLUME",
            "description": "Volume",
            "type": "TIMESERIES_COMPOUND_INTEGER",
            "writable": true,
            "classification" : "Pricing"
          },
          {
            "name": "C0_EOD.NL.JPX.OPEN",
            "description": "Open Price",
            "type": "TIMESERIES_COMPOUND_PRICE",
            "writable": true,
            "classification" : "Pricing"
          },
          {
            "name": "C0_EOD.NL.JPX.CLOSE",
            "description": "Close Price",
            "type": "TIMESERIES_COMPOUND_PRICE",
            "writable": true,
            "classification" : "Pricing"
          },
          {
            "name": "C0_EOD.NL.JPX.HIGH",
            "description": "High Price",
            "type": "TIMESERIES_COMPOUND_PRICE",
            "writable": true,
            "classification" : "Pricing"
          },
          {
            "name": "C0_EOD.NL.JPX.LOW",
            "description": "Low Price",
            "type": "TIMESERIES_COMPOUND_PRICE",
            "writable": true,
            "classification" : "Pricing"
          },
          {
            "name": "C0_EOD.NL.JPX.VOLUME",
            "description": "Volume",
            "type": "TIMESERIES_COMPOUND_INTEGER",
            "writable": true,
            "classification" : "Pricing"
          }
        ]
      },
      {
        "name": "INSTRUMENT_STK",
        "description": "INSTRUMENT Stock",
        "attributes": [
          {
            "name": "C0_SRC25",
            "description": "Entity type",
            "type": "String",
            "writable": true,
            "classification" : "ObjectInformation"
          },
          {
            "name": "C0_I0372",
            "description": "Long Description",
            "type": "String",
            "writable": true,
            "classification" : "Description"
          },
          {
            "name": "C0_I0020",
            "description": "Security type primary",
            "type": "SECURITY_TYPE_CODE_PRIMARY",
            "writable": true,
            "classification" : "Description"
          },
          {
            "name": "C0_I0129",
            "description": "Security type secondary",
            "type": "SECURITY_TYPE_CODE_SECONDARY_(N01.4)",
            "writable": true,
            "classification" : "Description"
          },
          {
            "name": "C0_I0131",
            "description": "Security type  tertiary",
            "type": "SECURITY_TYPE_CODE_TERTIARY_(N01.4)",
            "writable": true,
            "classification" : "Description"
          },
          {
            "name": "C0_I0288",
            "description": "Active status",
            "type": "INSTRUMENT_STATUS",
            "writable": true,
            "classification" : "Description"
          },
          {
            "name": "C0_I0199",
            "description": "Exchange traded",
            "type": "OTC/EXCHANGE_TRADED_INDICATOR_(FROZEN)",
            "writable": true,
            "classification" : "Codification"
          },
          {
            "name": "C0_I0435",
            "description": "Primary exchange",
            "type": "COUNTRY_PRIMARY_EXCHANGE",
            "writable": true,
            "classification" : "Codification"
          },
          {
            "name": "C0_I0247",
            "description": "Currency",
            "type": "CURRENCY",
            "writable": true,
            "classification" : "Codification"
          },
          {
            "name": "C0+I0095",
            "description": "Issuer",
            "type": "ISSUER_ADO",
            "writable": true,
            "classification" : "Identifiers"
          },
          {
            "name": "C0_I0045",
            "description": "DV Issuer ID",
            "type": "String",
            "writable": true,
            "classification" : "Identifiers"
          },
          {
            "name": "C0_I0111",
            "description": "Ticker",
            "type": "String",
            "writable": true,
            "classification" : "Identifiers"
          },
          {
            "name": "C0_I0035",
            "description": "ID ISIN",
            "type": "String",
            "writable": true,
            "classification" : "Identifiers"
          },
          {
            "name": "C0_I0041",
            "description": "ID SEDOL",
            "type": "String",
            "writable": true,
            "classification" : "Identifiers"
          },
          {
            "name": "C0_I0003",
            "description": "Source",
            "type": "DV_SOURCE",
            "writable": true,
            "classification" : "Identifiers"
          },
          {
            "name": "C0_I0011",
            "description": "Computation date of issue",
            "type": "Date",
            "writable": true,
            "classification" : "Computation"
          },
          {
            "name": "C0_I0023",
            "description": "Original issue amount",
            "type": "Float",
            "writable": true,
            "classification" : "Computation"
          },
          {
            "name": "C0_I0017",
            "description": "Original issue currency",
            "type": "CURRENCY",
            "writable": true,
            "classification" : "Computation"
          },
          {
            "name": "C0_I0142",
            "description": "Outstanding amount",
            "type": "Float",
            "writable": true,
            "classification" : "Computation"
          },
          {
            "name": "C0_I0110",
            "description": "First coupon date",
            "type": "Date",
            "writable": true,
            "classification" : "Computation"
          },
          {
            "name": "C0_I0115",
            "description": "Original issue price",
            "type": "Float",
            "writable": true,
            "classification" : "Computation"
          },
          {
            "name": "C0_I0325",
            "description": "Payment frequency code",
            "type": "FREQUENCY_CODE",
            "writable": true,
            "classification" : "Income"
          },
          {
            "name": "C0_I0058",
            "description": "Payment currency",
            "type": "CURRENCY",
            "writable": true,
            "classification" : "Income"
          },
          {
            "name": "C0_I0113",
            "description": "Next payable date",
            "type": "Date",
            "writable": true,
            "classification" : "Income"
          },
          {
            "name": "C0_I0103",
            "description": "Accrual day count code",
            "type": "ACCRUAL_DAY_COUNT_CODE",
            "writable": true,
            "classification" : "Income"
          },
		  {
            "name": "C0_EOD.ASK",
            "description": "Ask Price",
            "type": "TIMESERIES_PRICE",
            "writable": true,
            "classification" : "Pricing"
          },
          {
            "name": "C0_EOD.BID",
            "description": "Bid Price",
            "type": "TIMESERIES_PRICE",
            "writable": true,
            "classification" : "Pricing"
          },
          {
            "name": "C0_EOD.MID",
            "description": "Mid Price",
            "type": "TIMESERIES_PRICE",
            "writable": true,
            "classification" : "Pricing"
          },
          {
            "name": "C0_INTRADAY.ASK",
            "description": "Intraday Ask Price",
            "type": "TIMESERIES_PRICE",
            "writable": true,
            "classification" : "Pricing"
          },
          {
            "name": "C0_INTRADAY.BID",
            "description": "Intraday Bid Price",
            "type": "TIMESERIES_PRICE",
            "writable": true,
            "classification" : "Pricing"
          },
          {
            "name": "C0_INTRADAY.MID",
            "description": "Intraday Mid Price",
            "type": "TIMESERIES_PRICE",
            "writable": true,
            "classification" : "Pricing"
          }
        ]
      },
      {
        "name": "Common/ordinary shares",
        "description": "Common/ordinary shares",
        "attributes": [
          {
            "name": "C0.NAME",
            "description": "Long Description",
            "type": "String",
            "writable": true,
            "classification" : "Description"
          },
          {
            "name": "C0_I0020",
            "description": "Security type primary",
            "type": "SECURITY_TYPE_CODE_PRIMARY",
            "writable": true,
            "classification" : "Description"
          },
          {
            "name": "C0_I0129",
            "description": "Security type secondary",
            "type": "SECURITY_TYPE_CODE_SECONDARY_(N01.4)",
            "writable": true,
            "classification" : "Description"
          },
          {
            "name": "C0_I0131",
            "description": "Security type  tertiary",
            "type": "SECURITY_TYPE_CODE_TERTIARY_(N01.4)",
            "writable": true,
            "classification" : "Description"
          },
          {
            "name": "C0_I0288",
            "description": "Active status",
            "type": "INSTRUMENT_STATUS",
            "writable": true,
            "classification" : "Description"
          },
          {
            "name": "C0_I0199",
            "description": "Exchange traded",
            "type": "OTC/EXCHANGE_TRADED_INDICATOR_(FROZEN)",
            "writable": true,
            "classification" : "Codification"
          },
          {
            "name": "C0_I0435",
            "description": "Primary exchange",
            "type": "COUNTRY_PRIMARY_EXCHANGE",
            "writable": true,
            "classification" : "Codification"
          },
          {
            "name": "C0_I0247",
            "description": "Currency",
            "type": "CURRENCY",
            "writable": true,
            "classification" : "Codification"
          },
          {
            "name": "C0+I0095",
            "description": "Issuer",
            "type": "ISSUER_ADO",
            "writable": true,
            "classification" : "Identifiers"
          },
	          {
            "name": "C0+I0096",
            "description": "INSTRUMENT ADO",
            "type": "UNDERLYING_LISTING_STK_ADO",
            "writable": true,
            "classification" : "Identifiers"
          },
          {
            "name": "C0_I0045",
            "description": "DV Issuer ID",
            "type": "String",
            "writable": true,
            "classification" : "Identifiers"
          },
          {
            "name": "C0_I0111",
            "description": "Ticker",
            "type": "String",
            "writable": true,
            "classification" : "Identifiers"
          },
          {
            "name": "C0_I0035",
            "description": "ID ISIN",
            "type": "String",
            "writable": true,
            "classification" : "Identifiers"
          },
          {
            "name": "C0_I0041",
            "description": "ID SEDOL",
            "type": "String",
            "writable": true,
            "classification" : "Identifiers"
          },
          {
            "name": "C0_I0003",
            "description": "Source",
            "type": "DV_SOURCE",
            "writable": true,
            "classification" : "Identifiers"
          },
          {
            "name": "C0_I0011",
            "description": "Computation date of issue",
            "type": "Date",
            "writable": true,
            "classification" : "Computation"
          },
          {
            "name": "C0_I0023",
            "description": "Original issue amount",
            "type": "Float",
            "writable": true,
            "classification" : "Computation"
          },
          {
            "name": "C0_I0017",
            "description": "Original issue currency",
            "type": "CURRENCY",
            "writable": true,
            "classification" : "Computation"
          },
          {
            "name": "C0_I0142",
            "description": "Outstanding amount",
            "type": "Float",
            "writable": true,
            "classification" : "Computation"
          },
          {
            "name": "C0_I0110",
            "description": "First coupon date",
            "type": "Date",
            "writable": true,
            "classification" : "Computation"
          },
          {
            "name": "C0_I0115",
            "description": "Original issue price",
            "type": "Float",
            "writable": true,
            "classification" : "Computation"
          },
          {
            "name": "C0_I0325",
            "description": "Payment frequency code",
            "type": "FREQUENCY_CODE",
            "writable": true,
            "classification" : "Income"
          },
          {
            "name": "C0_I0058",
            "description": "Payment currency",
            "type": "CURRENCY",
            "writable": true,
            "classification" : "Income"
          },
          {
            "name": "C0_I0113",
            "description": "Next payable date",
            "type": "Date",
            "writable": true,
            "classification" : "Income"
          },
          {
            "name": "C0_I0103",
            "description": "Accrual day count code",
            "type": "ACCRUAL_DAY_COUNT_CODE",
            "writable": true,
            "classification" : "Income"
          },
          {
            "name": "C0_SRC25",
            "description": "Entity type",
            "type": "String",
            "writable": true,
            "classification" : "ObjectInformation"
          },
          {
            "name": "C0_SRC01",
            "description": "CONSOLIDATION RESOURCE ADOS",
            "type": "SOURCE_COMMON_STOCK_ADO",
            "writable": true,
            "classification" : "Description"
          },
		  {
            "name": "C0_EOD.ASK",
            "description": "Ask Price",
            "type": "TIMESERIES_PRICE",
            "writable": true,
            "classification" : "Pricing"
          },
          {
            "name": "C0_EOD.BID",
            "description": "Bid Price",
            "type": "TIMESERIES_PRICE",
            "writable": true,
            "classification" : "Pricing"
          },
          {
            "name": "C0_EOD.MID",
            "description": "Mid Price",
            "type": "TIMESERIES_PRICE",
            "writable": true,
            "classification" : "Pricing"
          },
          {
            "name": "C0_INTRADAY.ASK",
            "description": "Intraday Ask Price",
            "type": "TIMESERIES_PRICE",
            "writable": true,
            "classification" : "Pricing"
          },
          {
            "name": "C0_INTRADAY.BID",
            "description": "Intraday Bid Price",
            "type": "TIMESERIES_PRICE",
            "writable": true,
            "classification" : "Pricing"
          },
          {
            "name": "C0_INTRADAY.MID",
            "description": "Intraday Mid Price",
            "type": "TIMESERIES_PRICE",
            "writable": true,
            "classification" : "Pricing"
          }
        ]
      },
      {
        "name": "INSTRUMENT_CDS",
        "description": "Instrument ISS_CDS",
        "attributes": [
          {
            "name": "C0_SRC25",
            "description": "Entity type",
            "type": "String",
            "writable": true,
            "classification" : "ObjectInformation"
          },
          {
            "name": "C0_I0372",
            "description": "Long Description",
            "type": "String",
            "writable": true,
            "classification" : "Description"
          },
          {
            "name": "C0_I0020",
            "description": "Security type primary",
            "type": "SECURITY_TYPE_CODE_PRIMARY",
            "writable": true,
            "classification" : "Description"
          },
          {
            "name": "C0_I0129",
            "description": "Security type secondary",
            "type": "SECURITY_TYPE_CODE_SECONDARY_(N01.4)",
            "writable": true,
            "classification" : "Description"
          },
          {
            "name": "C0_I0131",
            "description": "Security type  tertiary",
            "type": "SECURITY_TYPE_CODE_TERTIARY_(N01.4)",
            "writable": true,
            "classification" : "Description"
          },
          {
            "name": "C0_I0288",
            "description": "Active status",
            "type": "INSTRUMENT_STATUS",
            "writable": true,
            "classification" : "Description"
          },
          {
            "name": "C0_I0199",
            "description": "Exchange traded",
            "type": "OTC/EXCHANGE_TRADED_INDICATOR_(FROZEN)",
            "writable": true,
            "classification" : "Codification"
          },
          {
            "name": "C0_I0247",
            "description": "Currency",
            "type": "CURRENCY",
            "writable": true,
            "classification" : "Codification"
          },
          {
            "name": "C0+I0095",
            "description": "Issuer",
            "type": "ISSUER_ADO",
            "writable": true,
            "classification" : "Identifiers"
          },
          {
            "name": "C0_I0045",
            "description": "DV Issuer ID",
            "type": "String",
            "writable": true,
            "classification" : "Identifiers"
          },
          {
            "name": "C0_I0003",
            "description": "Source",
            "type": "DV_SOURCE",
            "writable": true,
            "classification" : "Identifiers"
          },
          {
            "name": "C0_I0011",
            "description": "Computation date of issue",
            "type": "Date",
            "writable": true,
            "classification" : "Computation"
          },
		  {
            "name": "C0_EOD.ASK",
            "description": "Ask Price",
            "type": "TIMESERIES_PRICE",
            "writable": true,
            "classification" : "Pricing"
          },
          {
            "name": "C0_EOD.BID",
            "description": "Bid Price",
            "type": "TIMESERIES_PRICE",
            "writable": true,
            "classification" : "Pricing"
          },
          {
            "name": "C0_EOD.MID",
            "description": "Mid Price",
            "type": "TIMESERIES_PRICE",
            "writable": true,
            "classification" : "Pricing"
          }
        ]
      },
      {
        "name": "Bonds",
        "description": "Bonds",
        "attributes": [
          {
            "name": "C0_SRC25",
            "description": "Entity type",
            "type": "String",
            "writable": true,
            "classification" : "ObjectInformation"
          },
          {
            "name": "C0.NAME",
            "description": "Long Description",
            "type": "String",
            "writable": true,
            "classification" : "Description"
          },
          {
            "name": "C0_I0020",
            "description": "Security type primary",
            "type": "SECURITY_TYPE_CODE_PRIMARY",
            "writable": true,
            "classification" : "Description"
          },
          {
            "name": "C0_I0129",
            "description": "Security type secondary",
            "type": "SECURITY_TYPE_CODE_SECONDARY_(N01.4)",
            "writable": true,
            "classification" : "Description"
          },
          {
            "name": "C0_I0131",
            "description": "Security type  tertiary",
            "type": "SECURITY_TYPE_CODE_TERTIARY_(N01.4)",
            "writable": true,
            "classification" : "Description"
          },
          {
            "name": "C0_I0288",
            "description": "Active status",
            "type": "INSTRUMENT_STATUS",
            "writable": true,
            "classification" : "Description"
          },
          {
            "name": "C0_I0199",
            "description": "Exchange traded",
            "type": "OTC/EXCHANGE_TRADED_INDICATOR_(FROZEN)",
            "writable": true,
            "classification" : "Codification"
          },
          {
            "name": "C0_I0435",
            "description": "Primary exchange",
            "type": "COUNTRY_PRIMARY_EXCHANGE",
            "writable": true,
            "classification" : "Codification"
          },
          {
            "name": "C0_I0247",
            "description": "Currency",
            "type": "CURRENCY",
            "writable": true,
            "classification" : "Codification"
          },
          {
            "name": "C0+I0095",
            "description": "Issuer",
            "type": "ISSUER_ADO",
            "writable": true,
            "classification" : "Identifiers"
          },
          {
            "name": "C0_I0045",
            "description": "DV Issuer ID",
            "type": "String",
            "writable": true,
            "classification" : "Identifiers"
          },
          {
            "name": "C0_I0111",
            "description": "Ticker",
            "type": "String",
            "writable": true,
            "classification" : "Identifiers"
          },
          {
            "name": "C0_I0035",
            "description": "ID ISIN",
            "type": "String",
            "writable": true,
            "classification" : "Identifiers"
          },
          {
            "name": "C0_I0041",
            "description": "ID SEDOL",
            "type": "String",
            "writable": true,
            "classification" : "Identifiers"
          },
          {
            "name": "C0_I0003",
            "description": "Source",
            "type": "DV_SOURCE",
            "writable": true,
            "classification" : "Identifiers"
          },
          {
            "name": "C0_I0011",
            "description": "Date of issue",
            "type": "Date",
            "writable": true,
            "classification" : "Computation"
          },
          {
            "name": "C0_I0162",
            "description": "First settlement date",
            "type": "Date",
            "writable": true,
            "classification" : "Computation"
          },
          {
            "name": "C0_I0023",
            "description": "Original issue amount",
            "type": "Float",
            "writable": true,
            "classification" : "Computation"
          },
          {
            "name": "C0_I0017",
            "description": "Original issue currency",
            "type": "CURRENCY",
            "writable": true,
            "classification" : "Computation"
          },
          {
            "name": "C0_I0005",
            "description": "Nominal value",
            "type": "Float",
            "writable": true,
            "classification" : "Computation"
          },
          {
            "name": "C0_I0006",
            "description": "Nominal value currency",
            "type": "CURRENCY",
            "writable": true,
            "classification" : "Computation"
          },
          {
            "name": "C0_I0142",
            "description": "Outstanding amount",
            "type": "Float",
            "writable": true,
            "classification" : "Computation"
          },
          {
            "name": "C0_I0110",
            "description": "First coupon date",
            "type": "Date",
            "writable": true,
            "classification" : "Computation"
          },
          {
            "name": "C0_I0115",
            "description": "Original issue price",
            "type": "Float",
            "writable": true,
            "classification" : "Computation"
          },
          {
            "name": "C0_I0298",
            "description": "Last coupon payment date prior to maturity",
            "type": "Date",
            "writable": true,
            "classification" : "Computation"
          },
          {
            "name": "C0_I0325",
            "description": "Payment frequency code",
            "type": "FREQUENCY_CODE",
            "writable": true,
            "classification" : "Income"
          },
          {
            "name": "C0_I0058",
            "description": "Payment currency",
            "type": "CURRENCY",
            "writable": true,
            "classification" : "Income"
          },
          {
            "name": "C0_I0149",
            "description": "Payment currency code",
            "type": "COUPON_TYPE_CODE",
            "writable": true,
            "classification" : "Income"
          },
          {
            "name": "C0_I0362",
            "description": "Reset frequency code",
            "type": "FREQUENCY_CODE",
            "writable": true,
            "classification" : "Income"
          },
          {
            "name": "C0_I0113",
            "description": "Next payable date",
            "type": "Date",
            "writable": true,
            "classification" : "Income"
          },
          {
            "name": "C0_I0103",
            "description": "Accrual day count code",
            "type": "ACCRUAL_DAY_COUNT_CODE",
            "writable": true,
            "classification" : "Income"
          },
          {
            "name": "C0_I0012",
            "description": "Maturity/expiry/tenor date",
            "type": "Date",
            "writable": true,
            "classification" : "Description"
          },
          {
            "name": "C0+I0097",
            "description": "Listings",
            "type": "UNDERLYING_LISTING_BOND_ADO",
            "writable": false,
            "classification" : "ObjectInformation"
          },
  	  {
            "name": "C0_EOD.ASK",
            "description": "Ask Price",
            "type": "TIMESERIES_PRICE",
            "writable": true,
            "classification" : "Pricing"
          },
          {
            "name": "C0_EOD.BID",
            "description": "Bid Price",
            "type": "TIMESERIES_PRICE",
            "writable": true,
            "classification" : "Pricing"
          },
          {
            "name": "C0_EOD.MID",
            "description": "Mid Price",
            "type": "TIMESERIES_PRICE",
            "writable": true,
            "classification" : "Pricing"
          }
        ]
      }
    ]
  }
}
