{
  "view": {
    "name": "MI",
    "viewname": "Markit View",
    "classes": [
	 {
        "name": "MATURITY CI",
        "viewname": "MATURITY CREDIT INDICES",
	"writable": true,
        "attributes": [
         {
            "name": "MI_0420",
            "viewname": "Index Name",
	    "descriptionAttribute": true,
            "type": "String",
            "writable": true
          },
          {
            "name": "MI_0421",
            "viewname": "Index Family",
	    "summaryAttribute": true,
            "type": "String",
            "writable": true
          },
          {
            "name": "MI_0422",
            "viewname": "Index Series",
            "type": "String",
            "writable": true
          },
          {
            "name": "MI_0423",
            "viewname": "Index Version",
            "type": "String",
            "writable": true
          },
          {
            "name": "MI_0426",
            "viewname": "Index Term",
	    "summaryAttribute": true,
            "type": "String",
            "writable": true
          },
          {
            "name": "MI_0424",
            "viewname": "Index Red Code",
            "type": "String",
            "writable": true
          },
          {
            "name": "MI_0425",
            "viewname": "Index Id",
	    "summaryAttribute": true,
            "type": "String",
            "writable": true
          },
          {
            "name": "MI_0036",
            "viewname": "Maturity",
	    "summaryAttribute": true,
            "type": "Date",
            "writable": true
          },
          {
            "name": "MI_0022_CTB",
            "viewname": "Maturity Day",
            "type": "Integer",
            "writable": true
          },
          {
            "name": "MI_0024_CTB",
            "viewname": "Maturity Month",
            "type": "Integer",
            "writable": true
          },
          {
            "name": "MI_0025_CTB",
            "viewname": "Maturity Year",
            "type": "Integer",
            "writable": true
          },
          {
            "name": "MI_0023_CTB",
            "viewname": "Maturity Id",
            "type": "String",
            "writable": true
          },
          {
            "name": "MI_0030_CTB",
            "viewname": "Quorum",
            "type": "String",
            "writable": true
          },
           {
            "name": "MI_0004",
            "viewname": "File Date",
            "type": "Date",
            "writable": true
          },
           {
            "name": "MI_0049",
            "viewname": "Coupon",
            "type": "Float",
            "writable": true
          },
           {
            "name": "MI_0005",
            "viewname": "File Version",
            "type": "String",
            "writable": true
          },
           {
            "name": "MI_0049_CTB",
            "viewname": "Notional",
            "type": "Float",
            "writable": true
          },
          {
            "name": "MI_0050",
            "viewname": "Currency",
            "type": "MI_CURRENCY",
            "writable": true
          },
	  {
            "name": "MARKIT.MI_0087",
            "viewname": "Composite Price",
            "type": "TIMESERIES_PRICE",
            "writable": true
          },
          {
            "name": "MARKIT.MI_0342",
            "viewname": "Composite Spread",
            "type": "TIMESERIES_PRICE",
            "writable": true
          },
          {
            "name": "MARKIT.MI_0071",
            "viewname": "Depth",
            "type": "TIMESERIES_INTEGER",
            "writable": true
          },
	   {
            "name": "MARKIT.MI_0345",
            "viewname": "Heat",
            "type": "TIMESERIES_PRICE",
            "writable": true
          },
          {
            "name": "MARKIT.MI_0355",
            "viewname": "Index Price Mid",
            "type": "TIMESERIES_PRICE",
            "writable": true
          },
          {
            "name": "MARKIT.MI_0356",
            "viewname": "Index Spread Mid",
            "type": "TIMESERIES_PRICE",
            "writable": true
          }
	]
      },  
	{
        "name": "SERIES CI",
        "viewname": "SERIES CREDIT INDICES",
        "writable": true,
        "attributes": [
	{
            "name": "MI_0421",
            "viewname": "INDEX FAMILY",
            "type": "String",
            "writable": true
          },
        {
            "name": "MI_0418",
            "viewname": "FILE NAME",
            "type": "String",
            "writable": true
          },
        {
            "name": "MI_0004",
            "viewname": "FILE DATE",
            "type": "Date",
            "writable": true
          },
        {
            "name": "MI_0002_RCS",
            "viewname": "INDEX SUB FAMILY",
            "type": "String",
            "writable": true
          },
        {
            "name": "MI_0420",
            "viewname": "INDEX NAME",
            "type": "String",
            "descriptionAttribute" : true,
            "writable": true
          },
        {
            "name": "MI_0004_RCS",
            "viewname": "EFFECTIVE DATE",
            "type": "Date",
            "writable": true
          },
        {
            "name": "MI_0005_RCS",
            "viewname": "ANNEX DATE",
            "type": "Date",
            "writable": true
          }
	]
      },
      {
        "name": "CDS SINGLE NAME",
        "viewname": "CDS SINGLE NAME",
	"writable": true,
        "attributes": [
	{
            "name": "MI_0020",
            "viewname": "Ticker",
            "type": "String",
            "writable": true
        },
        {
            "name": "MI_0021",
            "viewname": "Shortname",
	    "descriptionAttribute" : true,
	    "summaryAttribute" : true,
            "type": "String",
            "writable": true
        },
        {
            "name": "MI_0121",
            "viewname": "Redcode",
	    "summaryAttribute" : true,
            "type": "String",
            "writable": true
        },
        {
            "name": "MI_0035",
            "viewname": "File Date",
            "type": "Date",
            "writable": true
        },
        {
            "name": "MI_0050",
            "viewname": "Currency",
	    "summaryAttribute" : true,
            "type": "MI_CURRENCY",
            "writable": true
        },
        {
            "name": "MI_0005",
            "viewname": "File Version",
            "type": "String",
            "writable": true
        },
        {
            "name": "MI_0418",
            "viewname": "File Name",
            "type": "String",
            "writable": true
	},
        {
            "name": "MI_0094",
            "viewname": "Contributor",
            "type": "String",
            "writable": true
        },
        {
            "name": "MI_0136",
            "viewname": "Composite Depth 5Y",
	    "summaryAttribute" : true,
            "type": "Integer",
            "writable": true
        },
        {
            "name": "MI_0063",
            "viewname": "Composite Level Recovery",
	    "summaryAttribute" : true,
            "type": "String",
            "writable": true
        },
        {
            "name": "MI_0427_ICC",
            "viewname": "Index Red Code Link",
            "type": "String",
            "writable": true
        },
        {
            "name": "MI_0185",
            "viewname": "FLW Ado Type",
            "type": "String",
            "writable": true
        },
          {
            "name": "MARKIT.MI+0177",
            "viewname": "CDS CURVE",
            "writable": true
          },
	{
            "name": "MARKIT.MI_0109",
            "viewname": "RECOVERY RATE",
            "type": "TIMESERIES_PRICE",
            "writable": true
          }
        ]
      }
    ]
  }
}
