Date,Open,High,Low,Close,Volume
15-08-17,47.009998,47.299999,46.43,46.43,7663000
16-08-17,46.610001,46.82,45.919998,46.009998,8350800
17-08-17,45.830002,45.98,45.029999,45.09,9426800
18-08-17,44.939999,45.82,44.869999,45.389999,7284000
21-08-17,45.400002,45.400002,44.529999,44.68,8501900
22-08-17,45,45.709999,44.93,45.57,7130700
23-08-17,45.200001,45.950001,45.110001,45.799999,5464800
24-08-17,45.970001,46.18,45.73,46,6640700
25-08-17,46.169998,46.419998,45.73,45.939999,5659400
28-08-17,46.16,46.16,45.119999,45.48,6526700
29-08-17,44.720001,45.57,44.34,45.349998,8776100
30-08-17,45.439999,45.959999,45.43,45.66,5672900
31-08-17,46,46.040001,45.389999,45.5,7890800
01-09-17,45.59,46.52,45.299999,46.189999,7024700
05-09-17,45.66,45.720001,44.720001,44.889999,8735700
06-09-17,45.040001,45.34,44.75,45.07,6313200
07-09-17,45.130001,45.130001,43.84,44.07,11538300
08-09-17,44.189999,44.810001,43.950001,44.009998,8739800
11-09-17,44.709999,45.330002,44.419998,45.16,8017000
12-09-17,45.360001,46.080002,45.34,45.75,8010200
13-09-17,45.73,46.259998,45.560001,46.220001,6637900
14-09-17,46.400002,46.759998,46.310001,46.419998,7414100
15-09-17,46.259998,46.66,46.139999,46.599998,9113100
18-09-17,46.82,47.669998,46.75,47.32,7938000